tek0059ALL.csv

Model,MDO4104-3
Firmware Version,3.18

Waveform Type,ANALOG,
Point Format,Y,
Horizontal Units,s,
Horizontal Scale,0.2,
Horizontal Delay,1.82,
Sample Interval,2e-05,
Record Length,100000,
Gating,0.0% to 100.0%,
Probe Attenuation,10,10
Vertical Units,V,V
Vertical Offset,0,0
Vertical Scale,20,0.02
Vertical Position,-0.18,-0.74
,,
,,
,,
Label,,
TIME,CH1,CH3
8.200000e-01,-0.521875,-0.00187187
8.200200e-01,-0.565625,-0.00724375
8.200400e-01,-0.540625,-0.00363437
8.200600e-01,-0.540625,-0.00383125
8.200800e-01,-0.509375,-0.0041625
8.201000e-01,-0.5125,-0.00130625
8.201200e-01,-0.590625,-0.00739375
8.201400e-01,-0.565625,-0.00379688
8.201600e-01,-0.5125,-0.00385
8.201800e-01,-0.50625,-0.00392813
8.202000e-01,-0.5125,-0.0011875
8.202200e-01,-0.53125,-0.00635
8.202400e-01,-0.51875,-0.00365625
8.202600e-01,-0.5,-0.00384687
8.202800e-01,-0.540625,-0.00391562
8.203000e-01,-0.55,-0.00162188
8.203200e-01,-0.58125,-0.00589375
8.203400e-01,-0.575,-0.00449375
8.203600e-01,-0.546875,-0.00475
8.203800e-01,-0.525,-0.00298438
8.204000e-01,-0.5375,-0.00217188
8.204200e-01,-0.50625,-0.00467187
8.204400e-01,-0.534375,-0.00447812
8.204600e-01,-0.50625,-0.0053125
8.204800e-01,-0.49375,-0.00316875
8.205000e-01,-0.490625,-0.00368125
8.205200e-01,-0.478125,-0.00365625
8.205400e-01,-0.49375,-0.00494063
8.205600e-01,-0.490625,-0.00424688
8.205800e-01,-0.51875,-0.0034125
8.206000e-01,-0.53125,-0.00369375
8.206200e-01,-0.53125,-0.0025875
8.206400e-01,-0.53125,-0.0058125
8.206600e-01,-0.48125,-0.00396563
8.206800e-01,-0.51875,-0.00365625
8.207000e-01,-0.521875,-0.00389375
8.207200e-01,-0.51875,-0.001325
8.207400e-01,-0.5375,-0.00664688
8.207600e-01,-0.565625,-0.004475
8.207800e-01,-0.559375,-0.00331562
8.208000e-01,-0.565625,-0.00454687
8.208200e-01,-0.5125,-0.0023625
8.208400e-01,-0.490625,-0.00529687
8.208600e-01,-0.49375,-0.0043125
8.208800e-01,-0.521875,-0.00347812
8.209000e-01,-0.525,-0.00419375
8.209200e-01,-0.5125,-0.0025125
8.209400e-01,-0.490625,-0.00444687
8.209600e-01,-0.50625,-0.0052
8.209800e-01,-0.521875,-0.00289688
8.210000e-01,-0.490625,-0.00409063
8.210200e-01,-0.484375,-0.00185937
8.210400e-01,-0.484375,-0.003325
8.210600e-01,-0.525,-0.00470312
8.210800e-01,-0.5125,-0.0029625
8.211000e-01,-0.525,-0.00404062
8.211200e-01,-0.55,-0.00217188
8.211400e-01,-0.521875,-0.00285
8.211600e-01,-0.546875,-0.005675
8.211800e-01,-0.521875,-0.00367188
8.212000e-01,-0.553125,-0.004325
8.212200e-01,-0.58125,-0.00219688
8.212400e-01,-0.55,-0.002675
8.212600e-01,-0.496875,-0.00575938
8.212800e-01,-0.484375,-0.00410625
8.213000e-01,-0.525,-0.00415313
8.213200e-01,-0.5375,-0.0028125
8.213400e-01,-0.55,-0.00345
8.213600e-01,-0.53125,-0.00458438
8.213800e-01,-0.525,-0.00467813
8.214000e-01,-0.50625,-0.00362812
8.214200e-01,-0.540625,-0.00297187
8.214400e-01,-0.5625,-0.00204688
8.214600e-01,-0.525,-0.003875
8.214800e-01,-0.559375,-0.00570625
8.215000e-01,-0.50625,-0.00321562
8.215200e-01,-0.525,-0.00364688
8.215400e-01,-0.509375,-0.00312187
8.215600e-01,-0.50625,-0.0030875
8.215800e-01,-0.5125,-0.00593437
8.216000e-01,-0.50625,-0.00282813
8.216200e-01,-0.546875,-0.00454062
8.216400e-01,-0.546875,-0.00387812
8.216600e-01,-0.521875,-0.00210938
8.216800e-01,-0.50625,-0.00642812
8.217000e-01,-0.50625,-0.00294688
8.217200e-01,-0.521875,-0.00459688
8.217400e-01,-0.53125,-0.00342188
8.217600e-01,-0.540625,-0.00181875
8.217800e-01,-0.565625,-0.00675625
8.218000e-01,-0.51875,-0.003425
8.218200e-01,-0.565625,-0.00497812
8.218400e-01,-0.553125,-0.00324687
8.218600e-01,-0.55,-0.00224062
8.218800e-01,-0.534375,-0.0061
8.219000e-01,-0.565625,-0.00366875
8.219200e-01,-0.559375,-0.00514687
8.219400e-01,-0.496875,-0.00201563
8.219600e-01,-0.509375,-0.00249375
8.219800e-01,-0.521875,-0.0055625
8.220000e-01,-0.534375,-0.00310625
8.220200e-01,-0.540625,-0.00423125
8.220400e-01,-0.5125,-0.00263438
8.220600e-01,-0.553125,-0.00306562
8.220800e-01,-0.5375,-0.003475
8.221000e-01,-0.51875,-0.00480625
8.221200e-01,-0.53125,-0.00451562
8.221400e-01,-0.521875,-0.00289688
8.221600e-01,-0.565625,-0.00406875
8.221800e-01,-0.5375,-0.00258125
8.222000e-01,-0.578125,-0.00568125
8.222200e-01,-0.575,-0.00344062
8.222400e-01,-0.5875,-0.00283438
8.222600e-01,-0.559375,-0.00422812
8.222800e-01,-0.56875,-0.0016625
8.223000e-01,-0.553125,-0.00632188
8.223200e-01,-0.575,-0.0039
8.223400e-01,-0.565625,-0.0031875
8.223600e-01,-0.575,-0.00429375
8.223800e-01,-0.5375,-0.00171875
8.224000e-01,-0.525,-0.0073875
8.224200e-01,-0.53125,-0.00285625
8.224400e-01,-0.578125,-0.00388437
8.224600e-01,-0.5625,-0.00345313
8.224800e-01,-0.58125,-0.00114687
8.225000e-01,-0.5625,-0.00654688
8.225200e-01,-0.540625,-0.0027875
8.225400e-01,-0.559375,-0.0046125
8.225600e-01,-0.5625,-0.00346875
8.225800e-01,-0.53125,-0.00133125
8.226000e-01,-0.5625,-0.00593437
8.226200e-01,-0.534375,-0.00331562
8.226400e-01,-0.53125,-0.00455313
8.226600e-01,-0.55,-0.0033125
8.226800e-01,-0.5375,-0.00232188
8.227000e-01,-0.534375,-0.00434375
8.227200e-01,-0.546875,-0.00458125
8.227400e-01,-0.540625,-0.00499063
8.227600e-01,-0.5125,-0.00305937
8.227800e-01,-0.565625,-0.00366875
8.228000e-01,-0.56875,-0.0025
8.228200e-01,-0.575,-0.00588125
8.228400e-01,-0.578125,-0.00456875
8.228600e-01,-0.53125,-0.00325
8.228800e-01,-0.51875,-0.00325938
8.229000e-01,-0.5375,-0.00175
8.229200e-01,-0.55,-0.00568125
8.229400e-01,-0.521875,-0.00460312
8.229600e-01,-0.5625,-0.0027875
8.229800e-01,-0.540625,-0.00369687
8.230000e-01,-0.534375,-0.00120937
8.230200e-01,-0.575,-0.00655312
8.230400e-01,-0.575,-0.00380938
8.230600e-01,-0.5875,-0.00331562
8.230800e-01,-0.5875,-0.00438437
8.231000e-01,-0.521875,-0.00157188
8.231200e-01,-0.565625,-0.006275
8.231400e-01,-0.540625,-0.00423437
8.231600e-01,-0.55,-0.0032375
8.231800e-01,-0.53125,-0.00462813
8.232000e-01,-0.53125,-0.0018
8.232200e-01,-0.575,-0.0059
8.232400e-01,-0.546875,-0.00465625
8.232600e-01,-0.540625,-0.00327188
8.232800e-01,-0.55,-0.00402188
8.233000e-01,-0.534375,-0.00176875
8.233200e-01,-0.559375,-0.00446563
8.233400e-01,-0.575,-0.00482812
8.233600e-01,-0.5625,-0.00399375
8.233800e-01,-0.56875,-0.00429375
8.234000e-01,-0.553125,-0.00265937
8.234200e-01,-0.534375,-0.00236875
8.234400e-01,-0.559375,-0.00544063
8.234600e-01,-0.553125,-0.00338437
8.234800e-01,-0.56875,-0.00387812
8.235000e-01,-0.578125,-0.00255312
8.235200e-01,-0.559375,-0.0024
8.235400e-01,-0.546875,-0.00575625
8.235600e-01,-0.553125,-0.00409687
8.235800e-01,-0.53125,-0.0031
8.236000e-01,-0.546875,-0.00269062
8.236200e-01,-0.565625,-0.00275625
8.236400e-01,-0.590625,-0.00542812
8.236600e-01,-0.575,-0.00497188
8.236800e-01,-0.546875,-0.00359687
8.237000e-01,-0.51875,-0.00265
8.237200e-01,-0.5375,-0.00167187
8.237400e-01,-0.559375,-0.00379062
8.237600e-01,-0.56875,-0.0050625
8.237800e-01,-0.55,-0.00261562
8.238000e-01,-0.575,-0.00354688
8.238200e-01,-0.5625,-0.00253438
8.238400e-01,-0.5375,-0.00438125
8.238600e-01,-0.5375,-0.00549062
8.238800e-01,-0.5125,-0.00278125
8.239000e-01,-0.553125,-0.00473125
8.239200e-01,-0.575,-0.00214375
8.239400e-01,-0.553125,-0.0027375
8.239600e-01,-0.546875,-0.00658125
8.239800e-01,-0.509375,-0.00277188
8.240000e-01,-0.478125,-0.004525
8.240200e-01,-0.5125,-0.0024125
8.240400e-01,-0.51875,-0.00175
8.240600e-01,-0.565625,-0.00601563
8.240800e-01,-0.55,-0.00276563
8.241000e-01,-0.521875,-0.00505
8.241200e-01,-0.484375,-0.002725
8.241400e-01,-0.5,-0.00170312
8.241600e-01,-0.53125,-0.0060875
8.241800e-01,-0.521875,-0.00289688
8.242000e-01,-0.540625,-0.00482812
8.242200e-01,-0.50625,-0.0018
8.242400e-01,-0.525,-0.00261562
8.242600e-01,-0.55,-0.00519688
8.242800e-01,-0.546875,-0.00404062
8.243000e-01,-0.56875,-0.00350312
8.243200e-01,-0.540625,-0.00195937
8.243400e-01,-0.5125,-0.00339375
8.243600e-01,-0.578125,-0.00353437
8.243800e-01,-0.565625,-0.00519688
8.244000e-01,-0.525,-0.0039875
8.244200e-01,-0.53125,-0.00274375
8.244400e-01,-0.546875,-0.00351563
8.244600e-01,-0.5,-0.0025625
8.244800e-01,-0.49375,-0.00595
8.245000e-01,-0.5125,-0.00292813
8.245200e-01,-0.525,-0.00301563
8.245400e-01,-0.51875,-0.00378437
8.245600e-01,-0.509375,-0.00142187
8.245800e-01,-0.5125,-0.00729063
8.246000e-01,-0.5625,-0.00267812
8.246200e-01,-0.575,-0.00438437
8.246400e-01,-0.553125,-0.00330625
8.246600e-01,-0.525,-0.00137813
8.246800e-01,-0.565625,-0.00720625
8.247000e-01,-0.5625,-0.00254063
8.247200e-01,-0.540625,-0.00410938
8.247400e-01,-0.546875,-0.003275
8.247600e-01,-0.540625,-0.000596875
8.247800e-01,-0.559375,-0.0064875
8.248000e-01,-0.559375,-0.0028375
8.248200e-01,-0.559375,-0.00458438
8.248400e-01,-0.55,-0.00335938
8.248600e-01,-0.540625,-0.002075
8.248800e-01,-0.534375,-0.00586875
8.249000e-01,-0.546875,-0.00375625
8.249200e-01,-0.540625,-0.00535937
8.249400e-01,-0.534375,-0.00284687
8.249600e-01,-0.5375,-0.003425
8.249800e-01,-0.53125,-0.003775
8.250000e-01,-0.5625,-0.0040625
8.250200e-01,-0.55,-0.00507812
8.250400e-01,-0.578125,-0.00225313
8.250600e-01,-0.559375,-0.00349687
8.250800e-01,-0.553125,-0.00267188
8.251000e-01,-0.559375,-0.00504375
8.251200e-01,-0.56875,-0.00384687
8.251400e-01,-0.5625,-0.00290937
8.251600e-01,-0.59375,-0.00355625
8.251800e-01,-0.590625,-0.0012125
8.252000e-01,-0.6,-0.0062375
8.252200e-01,-0.553125,-0.0037
8.252400e-01,-0.5625,-0.00312187
8.252600e-01,-0.6,-0.00434063
8.252800e-01,-0.590625,-0.0011
8.253000e-01,-0.565625,-0.006425
8.253200e-01,-0.55,-0.00325938
8.253400e-01,-0.575,-0.00349687
8.253600e-01,-0.58125,-0.0042125
8.253800e-01,-0.5375,-0.000909375
8.254000e-01,-0.553125,-0.006125
8.254200e-01,-0.559375,-0.0034
8.254400e-01,-0.559375,-0.00366875
8.254600e-01,-0.559375,-0.00360312
8.254800e-01,-0.5375,-0.00184062
8.255000e-01,-0.534375,-0.00461563
8.255200e-01,-0.49375,-0.00411875
8.255400e-01,-0.51875,-0.00379375
8.255600e-01,-0.565625,-0.00359687
8.255800e-01,-0.56875,-0.00179687
8.256000e-01,-0.5625,-0.00371563
8.256200e-01,-0.58125,-0.00521563
8.256400e-01,-0.540625,-0.0038625
8.256600e-01,-0.546875,-0.0029625
8.256800e-01,-0.51875,-0.00170625
8.257000e-01,-0.559375,-0.0030875
8.257200e-01,-0.5625,-0.00525625
8.257400e-01,-0.559375,-0.0043
8.257600e-01,-0.553125,-0.00345313
8.257800e-01,-0.509375,-0.00252187
8.258000e-01,-0.509375,-0.00248438
8.258200e-01,-0.521875,-0.00573437
8.258400e-01,-0.521875,-0.00411875
8.258600e-01,-0.559375,-0.00345313
8.258800e-01,-0.590625,-0.00334687
8.259000e-01,-0.5375,-0.00165313
8.259200e-01,-0.546875,-0.00575
8.259400e-01,-0.534375,-0.00454687
8.259600e-01,-0.521875,-0.00312187
8.259800e-01,-0.559375,-0.00353437
8.260000e-01,-0.55,-0.00193125
8.260200e-01,-0.521875,-0.00423125
8.260400e-01,-0.525,-0.0049
8.260600e-01,-0.540625,-0.00350625
8.260800e-01,-0.50625,-0.0041875
8.261000e-01,-0.559375,-0.00251875
8.261200e-01,-0.5125,-0.00380313
8.261400e-01,-0.55,-0.00540313
8.261600e-01,-0.55,-0.0033
8.261800e-01,-0.53125,-0.00443438
8.262000e-01,-0.490625,-0.00219375
8.262200e-01,-0.50625,-0.00245625
8.262400e-01,-0.5375,-0.0059875
8.262600e-01,-0.5125,-0.00304375
8.262800e-01,-0.51875,-0.00447812
8.263000e-01,-0.546875,-0.0024
8.263200e-01,-0.496875,-0.0025875
8.263400e-01,-0.525,-0.00594063
8.263600e-01,-0.553125,-0.003375
8.263800e-01,-0.534375,-0.00421875
8.264000e-01,-0.53125,-0.00263125
8.264200e-01,-0.5375,-0.00326563
8.264400e-01,-0.546875,-0.0062875
8.264600e-01,-0.51875,-0.00337187
8.264800e-01,-0.5125,-0.00450625
8.265000e-01,-0.521875,-0.00185937
8.265200e-01,-0.5125,-0.00239687
8.265400e-01,-0.534375,-0.00598125
8.265600e-01,-0.521875,-0.00429375
8.265800e-01,-0.546875,-0.004625
8.266000e-01,-0.496875,-0.00255
8.266200e-01,-0.48125,-0.00245937
8.266400e-01,-0.51875,-0.00394375
8.266600e-01,-0.525,-0.00523125
8.266800e-01,-0.521875,-0.003175
8.267000e-01,-0.490625,-0.00274375
8.267200e-01,-0.53125,-0.00336875
8.267400e-01,-0.565625,-0.0030375
8.267600e-01,-0.53125,-0.00615312
8.267800e-01,-0.49375,-0.00315312
8.268000e-01,-0.5375,-0.00354375
8.268200e-01,-0.509375,-0.0041625
8.268400e-01,-0.50625,-0.00138125
8.268600e-01,-0.534375,-0.00726563
8.268800e-01,-0.496875,-0.00299063
8.269000e-01,-0.496875,-0.00406562
8.269200e-01,-0.521875,-0.00362812
8.269400e-01,-0.5,-0.00186562
8.269600e-01,-0.521875,-0.00730313
8.269800e-01,-0.525,-0.00223438
8.270000e-01,-0.49375,-0.00414375
8.270200e-01,-0.45625,-0.00230937
8.270400e-01,-0.484375,-0.00159688
8.270600e-01,-0.484375,-0.00653438
8.270800e-01,-0.459375,-0.00320625
8.271000e-01,-0.540625,-0.00611875
8.271200e-01,-0.51875,-0.003025
8.271400e-01,-0.509375,-0.00211562
8.271600e-01,-0.51875,-0.00575625
8.271800e-01,-0.484375,-0.00323125
8.272000e-01,-0.5,-0.0047375
8.272200e-01,-0.51875,-0.00253438
8.272400e-01,-0.525,-0.00354688
8.272600e-01,-0.509375,-0.00435312
8.272800e-01,-0.565625,-0.00417813
8.273000e-01,-0.546875,-0.004625
8.273200e-01,-0.5375,-0.00279375
8.273400e-01,-0.49375,-0.00417813
8.273600e-01,-0.5,-0.0030375
8.273800e-01,-0.5125,-0.00540625
8.274000e-01,-0.509375,-0.00357187
8.274200e-01,-0.5125,-0.00270937
8.274400e-01,-0.5,-0.00349687
8.274600e-01,-0.51875,-0.0011875
8.274800e-01,-0.540625,-0.00629063
8.275000e-01,-0.50625,-0.00378125
8.275200e-01,-0.490625,-0.00379688
8.275400e-01,-0.496875,-0.00368125
8.275600e-01,-0.521875,-0.00119063
8.275800e-01,-0.534375,-0.00708125
8.276000e-01,-0.53125,-0.00319688
8.276200e-01,-0.484375,-0.00348125
8.276400e-01,-0.496875,-0.00374063
8.276600e-01,-0.48125,-0.00111562
8.276800e-01,-0.496875,-0.00651875
8.277000e-01,-0.46875,-0.0031625
8.277200e-01,-0.509375,-0.00405
8.277400e-01,-0.509375,-0.00338437
8.277600e-01,-0.490625,-0.00134063
8.277800e-01,-0.5,-0.00513125
8.278000e-01,-0.5125,-0.00379062
8.278200e-01,-0.46875,-0.00420625
8.278400e-01,-0.471875,-0.00365313
8.278600e-01,-0.49375,-0.00255312
8.278800e-01,-0.5375,-0.00476562
8.279000e-01,-0.521875,-0.00415937
8.279200e-01,-0.509375,-0.0040125
8.279400e-01,-0.534375,-0.00330313
8.279600e-01,-0.53125,-0.00246875
8.279800e-01,-0.5375,-0.00340937
8.280000e-01,-0.525,-0.005525
8.280200e-01,-0.49375,-0.00421875
8.280400e-01,-0.50625,-0.00301875
8.280600e-01,-0.56875,-0.00364063
8.280800e-01,-0.565625,-0.00246875
8.281000e-01,-0.546875,-0.00523125
8.281200e-01,-0.509375,-0.00448437
8.281400e-01,-0.5125,-0.00385625
8.281600e-01,-0.49375,-0.00342813
8.281800e-01,-0.53125,-0.00189375
8.282000e-01,-0.5625,-0.00503438
8.282200e-01,-0.553125,-0.005375
8.282400e-01,-0.546875,-0.00245625
8.282600e-01,-0.546875,-0.00384375
8.282800e-01,-0.51875,-0.00127813
8.283000e-01,-0.5375,-0.0055375
8.283200e-01,-0.53125,-0.00432187
8.283400e-01,-0.553125,-0.00329688
8.283600e-01,-0.471875,-0.00401563
8.283800e-01,-0.478125,-0.00193437
8.284000e-01,-0.50625,-0.00496875
8.284200e-01,-0.540625,-0.00583125
8.284400e-01,-0.50625,-0.00334687
8.284600e-01,-0.509375,-0.00405313
8.284800e-01,-0.521875,-0.00259687
8.285000e-01,-0.51875,-0.00423125
8.285200e-01,-0.521875,-0.00567812
8.285400e-01,-0.55,-0.0027
8.285600e-01,-0.53125,-0.0045625
8.285800e-01,-0.55,-0.00228125
8.286000e-01,-0.534375,-0.0033
8.286200e-01,-0.559375,-0.0056125
8.286400e-01,-0.540625,-0.00280937
8.286600e-01,-0.53125,-0.00492813
8.286800e-01,-0.5375,-0.00295
8.287000e-01,-0.521875,-0.00291875
8.287200e-01,-0.534375,-0.00570312
8.287400e-01,-0.50625,-0.0030375
8.287600e-01,-0.521875,-0.00420312
8.287800e-01,-0.51875,-0.00233437
8.288000e-01,-0.51875,-0.00217188
8.288200e-01,-0.48125,-0.00555312
8.288400e-01,-0.50625,-0.00449063
8.288600e-01,-0.496875,-0.00339375
8.288800e-01,-0.484375,-0.00283438
8.289000e-01,-0.53125,-0.00270313
8.289200e-01,-0.50625,-0.00295
8.289400e-01,-0.5375,-0.00527813
8.289600e-01,-0.534375,-0.00369687
8.289800e-01,-0.5,-0.00305937
8.290000e-01,-0.51875,-0.0031625
8.290200e-01,-0.553125,-0.00269688
8.290400e-01,-0.534375,-0.00674375
8.290600e-01,-0.484375,-0.00274687
8.290800e-01,-0.490625,-0.003825
8.291000e-01,-0.459375,-0.00277188
8.291200e-01,-0.48125,-0.0023625
8.291400e-01,-0.490625,-0.00648125
8.291600e-01,-0.525,-0.00294688
8.291800e-01,-0.521875,-0.00410625
8.292000e-01,-0.5125,-0.0031125
8.292200e-01,-0.521875,-0.00232813
8.292400e-01,-0.525,-0.0070875
8.292600e-01,-0.53125,-0.00272813
8.292800e-01,-0.50625,-0.00454375
8.293000e-01,-0.49375,-0.002075
8.293200e-01,-0.49375,-0.00211875
8.293400e-01,-0.553125,-0.00621875
8.293600e-01,-0.53125,-0.0025625
8.293800e-01,-0.55,-0.00415313
8.294000e-01,-0.55,-0.0022875
8.294200e-01,-0.5125,-0.00239063
8.294400e-01,-0.525,-0.0056125
8.294600e-01,-0.525,-0.0030125
8.294800e-01,-0.5125,-0.00409375
8.295000e-01,-0.46875,-0.0023625
8.295200e-01,-0.525,-0.00331562
8.295400e-01,-0.51875,-0.00361875
8.295600e-01,-0.5125,-0.004925
8.295800e-01,-0.509375,-0.00456875
8.296000e-01,-0.5,-0.00262187
8.296200e-01,-0.540625,-0.00383125
8.296400e-01,-0.496875,-0.00279688
8.296600e-01,-0.496875,-0.00594688
8.296800e-01,-0.484375,-0.00434375
8.297000e-01,-0.509375,-0.00264687
8.297200e-01,-0.55,-0.00423437
8.297400e-01,-0.534375,-0.001825
8.297600e-01,-0.546875,-0.0068125
8.297800e-01,-0.46875,-0.00364688
8.298000e-01,-0.471875,-0.00380625
8.298200e-01,-0.48125,-0.0039
8.298400e-01,-0.490625,-0.00102187
8.298600e-01,-0.459375,-0.00753125
8.298800e-01,-0.50625,-0.00359687
8.299000e-01,-0.49375,-0.00462813
8.299200e-01,-0.496875,-0.00366562
8.299400e-01,-0.521875,-0.001475
8.299600e-01,-0.521875,-0.00679688
8.299800e-01,-0.496875,-0.00290625
8.300000e-01,-0.565625,-0.00409687
8.300200e-01,-0.565625,-0.0034125
8.300400e-01,-0.553125,-0.0019625
8.300600e-01,-0.49375,-0.00578125
8.300800e-01,-0.525,-0.00383125
8.301000e-01,-0.5625,-0.004125
8.301200e-01,-0.525,-0.00339375
8.301400e-01,-0.5,-0.00207813
8.301600e-01,-0.534375,-0.0045875
8.301800e-01,-0.553125,-0.0052
8.302000e-01,-0.5,-0.00468125
8.302200e-01,-0.50625,-0.00308438
8.302400e-01,-0.5,-0.0031
8.302600e-01,-0.496875,-0.00342188
8.302800e-01,-0.525,-0.0048625
8.303000e-01,-0.5125,-0.00551562
8.303200e-01,-0.540625,-0.00267812
8.303400e-01,-0.5125,-0.0032375
8.303600e-01,-0.496875,-0.0022875
8.303800e-01,-0.490625,-0.00553125
8.304000e-01,-0.478125,-0.00406875
8.304200e-01,-0.49375,-0.00327188
8.304400e-01,-0.46875,-0.0030125
8.304600e-01,-0.459375,-0.00120312
8.304800e-01,-0.46875,-0.00635625
8.305000e-01,-0.459375,-0.00375
8.305200e-01,-0.465625,-0.00324375
8.305400e-01,-0.51875,-0.00424375
8.305600e-01,-0.5,-0.00183125
8.305800e-01,-0.496875,-0.00625938
8.306000e-01,-0.51875,-0.00439375
8.306200e-01,-0.509375,-0.00300312
8.306400e-01,-0.5125,-0.00361875
8.306600e-01,-0.45625,-0.00093125
8.306800e-01,-0.5,-0.00541563
8.307000e-01,-0.5125,-0.00504375
8.307200e-01,-0.5,-0.00335938
8.307400e-01,-0.509375,-0.00421563
8.307600e-01,-0.490625,-0.00181875
8.307800e-01,-0.496875,-0.00355
8.308000e-01,-0.51875,-0.00479375
8.308200e-01,-0.509375,-0.00349063
8.308400e-01,-0.49375,-0.0036875
8.308600e-01,-0.48125,-0.00197813
8.308800e-01,-0.490625,-0.0033375
8.309000e-01,-0.5,-0.00571875
8.309200e-01,-0.484375,-0.00377813
8.309400e-01,-0.53125,-0.00331875
8.309600e-01,-0.496875,-0.00260938
8.309800e-01,-0.48125,-0.00314688
8.310000e-01,-0.50625,-0.00518438
8.310200e-01,-0.50625,-0.00394062
8.310400e-01,-0.5125,-0.00399688
8.310600e-01,-0.5,-0.00195312
8.310800e-01,-0.49375,-0.0019375
8.311000e-01,-0.496875,-0.00488437
8.311200e-01,-0.51875,-0.00439688
8.311400e-01,-0.525,-0.00375312
8.311600e-01,-0.49375,-0.0024
8.311800e-01,-0.496875,-0.001975
8.312000e-01,-0.521875,-0.00476562
8.312200e-01,-0.5375,-0.00462188
8.312400e-01,-0.534375,-0.00363125
8.312600e-01,-0.55,-0.00369375
8.312800e-01,-0.51875,-0.00241563
8.313000e-01,-0.534375,-0.0033
8.313200e-01,-0.534375,-0.006375
8.313400e-01,-0.5375,-0.00264375
8.313600e-01,-0.5,-0.00420312
8.313800e-01,-0.49375,-0.0023625
8.314000e-01,-0.46875,-0.001925
8.314200e-01,-0.51875,-0.00656875
8.314400e-01,-0.471875,-0.0025
8.314600e-01,-0.5375,-0.00421563
8.314800e-01,-0.521875,-0.00222813
8.315000e-01,-0.50625,-0.0018375
8.315200e-01,-0.5625,-0.00662187
8.315400e-01,-0.578125,-0.00292188
8.315600e-01,-0.578125,-0.00460312
8.315800e-01,-0.553125,-0.00216563
8.316000e-01,-0.540625,-0.00274063
8.316200e-01,-0.553125,-0.0062125
8.316400e-01,-0.553125,-0.00325
8.316600e-01,-0.509375,-0.00471875
8.316800e-01,-0.5125,-0.00261562
8.317000e-01,-0.5125,-0.00246562
8.317200e-01,-0.521875,-0.00505312
